%YAML 1.1
%TAG !u! tag:unity3d.com,2011:
--- !u!21 &2100000
Material:
  serializedVersion: 6
  m_ObjectHideFlags: 0
  m_CorrespondingSourceObject: {fileID: 0}
  m_PrefabInstance: {fileID: 0}
  m_PrefabAsset: {fileID: 0}
  m_Name: Water_Default_DemoSpecific
  m_Shader: {fileID: -6465566751694194690, guid: 8f7419b9139074c4db0fd790bee24cac, type: 3}
  m_ShaderKeywords: ETC1_EXTERNAL_ALPHA
  m_LightmapFlags: 4
  m_EnableInstancingVariants: 0
  m_DoubleSidedGI: 0
  m_CustomRenderQueue: -1
  stringTagMap: {}
  disabledShaderPasses: []
  m_SavedProperties:
    serializedVersion: 3
    m_TexEnvs:
    - Texture2D_b9b084658380406296a65a2f8d829280:
        m_Texture: {fileID: 8400000, guid: 6a87f7aa9024abf47a1d003ec168012f, type: 2}
        m_Scale: {x: 1, y: 1}
        m_Offset: {x: 0, y: 0}
    - _BaseMap:
        m_Texture: {fileID: 0}
        m_Scale: {x: 1, y: 1}
        m_Offset: {x: 0, y: 0}
    - _BumpMap:
        m_Texture: {fileID: 0}
        m_Scale: {x: 1, y: 1}
        m_Offset: {x: 0, y: 0}
    - _DetailAlbedoMap:
        m_Texture: {fileID: 0}
        m_Scale: {x: 1, y: 1}
        m_Offset: {x: 0, y: 0}
    - _DetailMask:
        m_Texture: {fileID: 0}
        m_Scale: {x: 1, y: 1}
        m_Offset: {x: 0, y: 0}
    - _DetailNormalMap:
        m_Texture: {fileID: 0}
        m_Scale: {x: 1, y: 1}
        m_Offset: {x: 0, y: 0}
    - _EmissionMap:
        m_Texture: {fileID: 0}
        m_Scale: {x: 1, y: 1}
        m_Offset: {x: 0, y: 0}
    - _MainTex:
        m_Texture: {fileID: 8400000, guid: 6a87f7aa9024abf47a1d003ec168012f, type: 2}
        m_Scale: {x: 1, y: 1}
        m_Offset: {x: 0, y: 0}
    - _MetallicGlossMap:
        m_Texture: {fileID: 0}
        m_Scale: {x: 1, y: 1}
        m_Offset: {x: 0, y: 0}
    - _OcclusionMap:
        m_Texture: {fileID: 0}
        m_Scale: {x: 1, y: 1}
        m_Offset: {x: 0, y: 0}
    - _ParallaxMap:
        m_Texture: {fileID: 0}
        m_Scale: {x: 1, y: 1}
        m_Offset: {x: 0, y: 0}
    - _SpecGlossMap:
        m_Texture: {fileID: 0}
        m_Scale: {x: 1, y: 1}
        m_Offset: {x: 0, y: 0}
    - unity_Lightmaps:
        m_Texture: {fileID: 0}
        m_Scale: {x: 1, y: 1}
        m_Offset: {x: 0, y: 0}
    - unity_LightmapsInd:
        m_Texture: {fileID: 0}
        m_Scale: {x: 1, y: 1}
        m_Offset: {x: 0, y: 0}
    - unity_ShadowMasks:
        m_Texture: {fileID: 0}
        m_Scale: {x: 1, y: 1}
        m_Offset: {x: 0, y: 0}
    m_Floats:
    - Boolean_1: 0
    - Boolean_2: 0
    - Boolean_259d7ec6b9574a2094dfc11b83750704: 0
    - Boolean_3: 0
    - Boolean_4: 0
    - Boolean_7ba7f40c30ad415187d8b3578bc2426a: 1
    - Boolean_c70fcbb0ed54481d99326211259d1475: 1
    - Vector1_00475b3847c34bc8ae3eb92d724e920c: 2
    - Vector1_03a71f2db5014e29bdec3b03f47bf4e8: 0.1
    - Vector1_04c1597ee49444be9f90059bf6ce0d1e: 11.95
    - Vector1_118e3064826846ee96f38bb924ccb74f: 2
    - Vector1_1ea226a7005e4ca787e14a55aacc0a9c: 0.0336
    - Vector1_201e5396b278498689ad16e03ae1f0bf: 1
    - Vector1_41dc5d544fd5445c913e0618e3581f6d: -0.25
    - Vector1_4701b64786fd4007a6ac1f2a8db384fd: 0.114
    - Vector1_49d038fca90c46ada40beadb244f1321: 1
    - Vector1_5f166c6d23154ee5896b62a0a026499c: 0.71
    - Vector1_693f153a95fe4a6da2ef92499dcc8be0: 0.01
    - Vector1_69f3e9ffa54346c6b64f4ef27d84d304: -0.15
    - Vector1_6b5fe5adaa754b8cbf5cc7369c658215: 0.06
    - Vector1_72258b28aaeb4b8088db8e7a6b3ee4d3: 1
    - Vector1_7b4f243e3bda468abe014037771aa828: 0.57
    - Vector1_847cea2bcc614a679d69cf008b4d499e: 0.66
    - Vector1_866169e9c9834e0c9e6d71a1d8e4f753: 97.61
    - Vector1_9e2bb85db7ca49899ead0f457081b468: 0.05
    - Vector1_a09f5844156a4121a8912be9943eaba0: 0.1
    - Vector1_a7d39ac2e5814c03b35c43df5e917883: 0.04
    - Vector1_b166a445053a4f08b9f38fff4d9db3c6: -0.3
    - Vector1_b4a6f997d04c4ee286cd8cd22d992f05: 1
    - Vector1_b9ea9093a1614391ab9d98a963b2e16b: 10
    - Vector1_bf2b849a32c74a398d50af25b8d8f724: 0.04
    - Vector1_d66c15ade3b142c29000508b93e95751: 1
    - Vector1_da19147824894d92a5161b6c27dce70a: 1.16
    - Vector1_e62ae12510c8478d88cd858db7b3bfef: 20
    - Vector1_e81e028e57414ff5af1963d142bd2ba8: 0.2
    - _AlphaClip: 0
    - _Blend: 0
    - _BumpScale: 1
    - _ClearCoatMask: 0
    - _ClearCoatSmoothness: 0
    - _Cull: 2
    - _Cutoff: 0.5
    - _DetailAlbedoMapScale: 1
    - _DetailNormalMapScale: 1
    - _DstBlend: 0
    - _EnvironmentReflections: 1
    - _GlossMapScale: 0
    - _Glossiness: 0
    - _GlossyReflections: 0
    - _Metallic: 0
    - _OcclusionStrength: 1
    - _Parallax: 0.005
    - _QueueOffset: 0
    - _ReceiveShadows: 1
    - _Smoothness: 0.5
    - _SmoothnessTextureChannel: 0
    - _SpecularHighlights: 1
    - _SrcBlend: 1
    - _Surface: 0
    - _WorkflowMode: 1
    - _ZWrite: 1
    m_Colors:
    - Color_1: {r: 0, g: 0, b: 0, a: 0}
    - Color_3ccc2259356444be849f324edd4f608e: {r: 253.0143, g: 253.0143, b: 253.0143, a: 0}
    - Color_463c60b87bcc4711b1d4197c7fb4839f: {r: 0, g: 0, b: 0, a: 0}
    - Color_5332bad04c3d461bb7a7412e8b6f9d2c: {r: 0.6309185, g: 0.9622642, b: 0.85406965, a: 0}
    - Color_7029d10a5ca04296bb2f4085aad95d9f: {r: 0, g: 0, b: 0, a: 0}
    - Color_ea26208d750243c3b43e455471bb4b4d: {r: 0.38207546, g: 0.9823908, b: 1, a: 0}
    - Vector2_007369cbf3e04f0abfbd377332a77451: {r: 0, g: 0, b: 0, a: 0}
    - Vector2_e3de600a0a9447c489375b9bc9062ad4: {r: 1, g: 1, b: 0, a: 0}
    - _BaseColor: {r: 1, g: 1, b: 1, a: 1}
    - _Color: {r: 1, g: 1, b: 1, a: 1}
    - _EmissionColor: {r: 0, g: 0, b: 0, a: 1}
    - _SpecColor: {r: 0.19999996, g: 0.19999996, b: 0.19999996, a: 1}
  m_BuildTextureStacks: []
--- !u!114 &906315462359343984
MonoBehaviour:
  m_ObjectHideFlags: 11
  m_CorrespondingSourceObject: {fileID: 0}
  m_PrefabInstance: {fileID: 0}
  m_PrefabAsset: {fileID: 0}
  m_GameObject: {fileID: 0}
  m_Enabled: 1
  m_EditorHideFlags: 0
  m_Script: {fileID: 11500000, guid: d0353a89b1f911e48b9e16bdc9f2e058, type: 3}
  m_Name: 
  m_EditorClassIdentifier: 
  version: 4
