%YAML 1.1
%TAG !u! tag:unity3d.com,2011:
--- !u!114 &11400000
MonoBehaviour:
  m_ObjectHideFlags: 0
  m_CorrespondingSourceObject: {fileID: 0}
  m_PrefabInstance: {fileID: 0}
  m_PrefabAsset: {fileID: 0}
  m_GameObject: {fileID: 0}
  m_Enabled: 1
  m_EditorHideFlags: 0
  m_Script: {fileID: 11500000, guid: 4b33da80418c1ca468a764d93bcc309a, type: 3}
  m_Name: playerData
  m_EditorClassIdentifier: 
  mossTag: Moss
  treeSapTag: Treesap
  jumpingShroomTag: JumpingShroom
  mossLayer:
    serializedVersion: 2
    m_Bits: 2048
  treeSapLayer:
    serializedVersion: 2
    m_Bits: 4096
  jumpingShroomLayer:
    serializedVersion: 2
    m_Bits: 1024
  speedUpTime: 0.084
  slowDownTime: 0.07
  movementVelocity: 30
  slowWalkVelocity: 10
  maxSlopeAngle: 90
  slopeCheckDistance: 10
  sideCheckDistance: 3
  maxWallSlopeAngle: 50
  wallSlopeCheckDistance: 8
  distanceToWall: 1.4
  jumpVelocity: 35
  amountOfJumps: 2
  smallestShroomJump: 23
  shroomJumpVelocity: 50
  shroomHeigthAdd: 15
  shroomHeigthReduce: 8
  maxBounceHeigth: 60
  quickFallVelocity: 60
  timeInAir: 0.15
  timerToStartGliding: 1
  glideTurnGravity: 3
  glideVelocity: 50
  glideWeight: 0.5
  glideTurnDrag: 2
  momentumVelocity: 50
  momentumTimer: 1.3
  wallJumpVelocity: 60
  wallJumpTime: 2
  wallJumpAngle: {x: 2.5, y: 3.5}
  jumpOffWallVelocity: 5
  jumpOffWallTime: 0.1
  jumpOffWallAngle: {x: 0.2, y: 2}
  wallHopVelocity: 5
  jumpAfterCliffTime: 0.25
  stopStength: 1.3
  wallSlideVelocity: 10
  wallClimbVelocity: 14
  wallClimbJump: 35
  startOffset: {x: 1.5, y: 1.1}
  stopOffset: {x: 1, y: 1}
  afterHookTime: 0.26
  hookIsActivated: 0
  maxLineLength: 15
  maxThrowLength: 80
  minLineLength: 10
  swingStrength: 15
  maxSwinging: 45
  minSwinging: 20
  groundCheckRadius: 0.6
  wallCheckDistance: 2.5
  shroomCheckRadius: 70
  whatIsGround:
    serializedVersion: 2
    m_Bits: 7232
  whatIsLedge:
    serializedVersion: 2
    m_Bits: 16
  wallStuckCheck: {x: 0.91, y: 5.02}
  rotateBackInAirTime: 50
  rotateBackOnGroundTime: 0
